<?xml version="1.0" encoding="UTF-8" standalone="no"?>
<svg
   xmlns:dc="http://purl.org/dc/elements/1.1/"
   xmlns:cc="http://creativecommons.org/ns#"
   xmlns:rdf="http://www.w3.org/1999/02/22-rdf-syntax-ns#"
   xmlns:svg="http://www.w3.org/2000/svg"
   xmlns="http://www.w3.org/2000/svg"
   xmlns:xlink="http://www.w3.org/1999/xlink"
   xmlns:sodipodi="http://sodipodi.sourceforge.net/DTD/sodipodi-0.dtd"
   xmlns:inkscape="http://www.inkscape.org/namespaces/inkscape"
   image-rendering="optimizeSpeed"
   version="1.1"
   id="1.svg"
   viewBox="0 0 720 1280"
   sodipodi:docname="page_720-1280.svg"
   width="720"
   height="1280"
   inkscape:version="1.0.2 (e86c870879, 2021-01-15)">
  <metadata
     id="metadata11">
    <rdf:RDF>
      <cc:Work
         rdf:about="">
        <dc:format>image/svg+xml</dc:format>
        <dc:type
           rdf:resource="http://purl.org/dc/dcmitype/StillImage" />
        <dc:title />
      </cc:Work>
    </rdf:RDF>
  </metadata>
  <sodipodi:namedview
     pagecolor="#ffffff"
     bordercolor="#666666"
     borderopacity="1"
     objecttolerance="10"
     gridtolerance="10"
     guidetolerance="10"
     inkscape:pageopacity="0"
     inkscape:pageshadow="2"
     inkscape:window-width="1366"
     inkscape:window-height="743"
     id="namedview9"
     showgrid="false"
     inkscape:showpageshadow="false"
     borderlayer="true"
     inkscape:pagecheckerboard="true"
     inkscape:zoom="0.4359375"
     inkscape:cx="360"
     inkscape:cy="640"
     inkscape:window-x="0"
     inkscape:window-y="0"
     inkscape:window-maximized="1"
     inkscape:current-layer="layer2"
     inkscape:document-rotation="0"
     showguides="false"
     units="px" />
  <defs
     id="defs5">
    <linearGradient
       inkscape:collect="always"
       id="linearGradient913">
      <stop
         style="stop-color:#999999;stop-opacity:1"
         offset="0"
         id="stop909" />
      <stop
         style="stop-color:#cccccc;stop-opacity:1"
         offset="1"
         id="stop911" />
    </linearGradient>
    <mask
       id="SVG_Canvas">
      <rect
         fill="#ffffff"
         x="0"
         y="0"
         width="720"
         height="720"
         id="rect2" />
    </mask>
    <linearGradient
       inkscape:collect="always"
       xlink:href="#linearGradient913"
       id="linearGradient915"
       x1="326.10614"
       y1="-0.33205587"
       x2="326.10614"
       y2="19.268881"
       gradientUnits="userSpaceOnUse" />
  </defs>
  <!-- SourceCode:9va-0.7.8 (9va-win) -->
  <!--
IwZFVkEtUyBWAgEAagFJBALQAtBCBAABAQBaBAH///9PPgRcXD9cdW5peFxob21lXHZpbWlub1xQcm9qZWN0c1xQcm9qZWN0c1xBcnRcQ29taWNcVGVzdFwxLnN2ZyMATwBQAGT//w==
-->
  <g
     inkscape:groupmode="layer"
     id="layer4"
     inkscape:label="grid">
    <g
       inkscape:groupmode="layer"
       id="layer3"
       inkscape:label="1-1"
       style="display:inline">
      <rect
         style="display:inline;fill:#808080;stroke:none;stroke-width:116.652;stroke-linecap:round;stroke-linejoin:round;stroke-opacity:0.87451"
         id="rect1007-36"
         width="720"
         height="1260"
         x="1.9073482e-06"
         y="20" />
    </g>
  </g>
  <g
     inkscape:groupmode="layer"
     id="layer5"
     inkscape:label="content"
     style="display:inline" />
  <g
     inkscape:groupmode="layer"
     id="layer2"
     inkscape:label="header"
     style="display:inline;opacity:1">
    <rect
       style="display:inline;fill:url(#linearGradient915);fill-opacity:1;stroke:none;stroke-width:19.8994;stroke-linecap:round;stroke-linejoin:round;stroke-opacity:0.87451"
       id="rect865"
       width="720"
       height="20"
       x="1.9073483e-06"
       y="0" />
    <text
       xml:space="preserve"
       style="font-style:normal;font-variant:normal;font-weight:bold;font-stretch:normal;font-size:16px;line-height:1;font-family:'Nimbus Sans';-inkscape-font-specification:'Nimbus Sans Bold';letter-spacing:0px;word-spacing:0px;display:inline;mix-blend-mode:soft-light"
       x="714.84802"
       y="15.672"
       id="text884"><tspan
         sodipodi:role="line"
         id="tspan882"
         x="714.84802"
         y="15.672"
         style="font-size:16px;text-align:end;text-anchor:end">720x1280</tspan></text>
    <text
       xml:space="preserve"
       style="font-weight:900;font-size:8px;line-height:0.8;font-family:Aileron;-inkscape-font-specification:'Aileron Heavy';letter-spacing:0px;word-spacing:0px;display:inline;mix-blend-mode:soft-light"
       x="43.25993"
       y="9.5080004"
       id="text888"><tspan
         sodipodi:role="line"
         id="tspan886"
         x="43.25993"
         y="9.5080004"
         style="font-style:normal;font-variant:normal;font-weight:bold;font-stretch:normal;font-size:8px;font-family:'Nimbus Sans';-inkscape-font-specification:'Nimbus Sans Bold';text-align:center;text-anchor:middle">VIMINO.GITLAB.IO</tspan><tspan
         sodipodi:role="line"
         x="43.25993"
         y="16.236"
         style="font-style:normal;font-variant:normal;font-weight:bold;font-stretch:normal;font-size:8px;font-family:'Nimbus Sans';-inkscape-font-specification:'Nimbus Sans Bold';text-align:center;text-anchor:middle"
         id="tspan890">/watch/comic/...</tspan></text>
    <text
       xml:space="preserve"
       style="font-weight:900;font-size:18.6667px;line-height:1;font-family:Aileron;-inkscape-font-specification:'Aileron Heavy';letter-spacing:0px;word-spacing:0px;display:inline;mix-blend-mode:overlay"
       x="359.87866"
       y="16.318678"
       id="text894"><tspan
         sodipodi:role="line"
         id="tspan892"
         x="359.87866"
         y="16.318678"
         style="font-style:normal;font-variant:normal;font-weight:bold;font-stretch:normal;font-size:18.6667px;font-family:'Nimbus Roman';-inkscape-font-specification:'Nimbus Roman,  Bold';text-align:center;text-anchor:middle">Title</tspan></text>
    <text
       xml:space="preserve"
       style="font-style:normal;font-variant:normal;font-weight:bold;font-stretch:normal;font-size:232.38px;line-height:1;font-family:'Nimbus Sans';-inkscape-font-specification:'Nimbus Sans Bold';letter-spacing:0px;word-spacing:0px;display:inline;mix-blend-mode:soft-light;stroke-width:14.5237"
       x="141.80667"
       y="712.57928"
       id="text884-3"
       transform="rotate(-60)"><tspan
         sodipodi:role="line"
         id="tspan882-5"
         x="141.80672"
         y="712.57928"
         style="font-size:232.38px;text-align:end;text-anchor:end;stroke-width:14.5237">720x1280</tspan></text>
  </g>
</svg>
